[gd_scene load_steps=5 format=2]

[ext_resource path="res://asetoj/tero/ter_peco.gd" type="Script" id=1]
[ext_resource path="res://asetoj/tero/ter_komenco.tscn" type="PackedScene" id=2]
[ext_resource path="res://asetoj/tero/ter_mezo.tscn" type="PackedScene" id=3]
[ext_resource path="res://asetoj/tero/ter_fino.tscn" type="PackedScene" id=4]

[node name="ter_peco" type="Node2D"]
script = ExtResource( 1 )

[node name="ter_komenco" parent="." instance=ExtResource( 2 )]
position = Vector2( 128.83, 0 )

[node name="ter_mezo" parent="." instance=ExtResource( 3 )]
position = Vector2( 127.142, 0 )
scale = Vector2( 2, 1 )

[node name="ter_fino" parent="." instance=ExtResource( 4 )]
position = Vector2( 380, 0 )

[node name="fino_de_la_peco" type="Position2D" parent="."]
position = Vector2( 250, 0 )

