[gd_scene load_steps=3 format=2]

[ext_resource path="res://asetoj/sxtonoj/barilo.png" type="Texture" id=1]

[sub_resource type="RectangleShape2D" id=1]

extents = Vector2( 3.98178, 11.5502 )

[node name="Barilo01" type="StaticBody2D" groups=[
"obstakloj",
]]
z_index = 1
collision_layer = 8
collision_mask = 8

[node name="barilo" type="Sprite" parent="."]
position = Vector2( 8, 4.01073 )
texture = ExtResource( 1 )

[node name="CollisionShape2D" type="CollisionShape2D" parent="."]
position = Vector2( 2.12024, -44.0193 )
shape = SubResource( 1 )

