[gd_scene load_steps=7 format=2]

[ext_resource path="res://asetoj/donaco/donaco.gd" type="Script" id=1]
[ext_resource path="res://asetoj/donaco/donaco.png" type="Texture" id=2]
[ext_resource path="res://asetoj/donaco/donac_ombro.png" type="Texture" id=3]

[sub_resource type="Animation" id=1]

resource_name = "originala"
length = 2.0
loop = true
tracks/0/type = "bezier"
tracks/0/path = NodePath("donaco:position:y")
tracks/0/interp = 1
tracks/0/loop_wrap = true
tracks/0/imported = false
tracks/0/enabled = true
tracks/0/keys = {
"points": PoolRealArray( -95.597, -0.25, 0, 0.47, 0.459839, -82.6371, -0.47, -0.833336, 0.5, 0, -95.597, -0.45, 0.459839, 0.25, 0 ),
"times": PoolRealArray( 0, 1, 2 )
}
tracks/1/type = "value"
tracks/1/path = NodePath("donac_ombro:scale")
tracks/1/interp = 2
tracks/1/loop_wrap = true
tracks/1/imported = false
tracks/1/enabled = true
tracks/1/keys = {
"times": PoolRealArray( 0, 1, 2 ),
"transitions": PoolRealArray( 1, 1, 1 ),
"update": 0,
"values": [ Vector2( 0.261833, 0.0549471 ), Vector2( 0.423773, 0.084816 ), Vector2( 0.261833, 0.0549471 ) ]
}

[sub_resource type="Animation" id=2]

resource_name = "preni"
length = 0.5
tracks/0/type = "value"
tracks/0/path = NodePath("donaco:position")
tracks/0/interp = 2
tracks/0/loop_wrap = true
tracks/0/imported = false
tracks/0/enabled = true
tracks/0/keys = {
"times": PoolRealArray( 0, 0.3, 0.5 ),
"transitions": PoolRealArray( 1, 1, 1 ),
"update": 0,
"values": [ Vector2( -5.70026, -93.8617 ), Vector2( -6.12, -115 ), Vector2( -6.12, -90.231 ) ]
}
tracks/1/type = "value"
tracks/1/path = NodePath("donaco:rotation_degrees")
tracks/1/interp = 2
tracks/1/loop_wrap = true
tracks/1/imported = false
tracks/1/enabled = true
tracks/1/keys = {
"times": PoolRealArray( 0, 0.1, 0.2, 0.3, 0.4 ),
"transitions": PoolRealArray( 1, 1, 1, 1, 1 ),
"update": 0,
"values": [ 0.0, -13.4353, 26.8817, -2.35338, -0.442103 ]
}
tracks/2/type = "value"
tracks/2/path = NodePath("donaco:scale")
tracks/2/interp = 2
tracks/2/loop_wrap = true
tracks/2/imported = false
tracks/2/enabled = true
tracks/2/keys = {
"times": PoolRealArray( 0, 0.3, 0.5 ),
"transitions": PoolRealArray( 1, 1, 1 ),
"update": 0,
"values": [ Vector2( 1, 1 ), Vector2( 1.16764, 1.16764 ), Vector2( 0.267669, 0.267669 ) ]
}
tracks/3/type = "bezier"
tracks/3/path = NodePath("donaco:modulate:a")
tracks/3/interp = 1
tracks/3/loop_wrap = true
tracks/3/imported = false
tracks/3/enabled = true
tracks/3/keys = {
"points": PoolRealArray( 1, -0.25, 0, 0.25, 0, -0.0209734, -0.25, 0, 0.25, 0 ),
"times": PoolRealArray( 0.2, 0.494093 )
}
tracks/4/type = "value"
tracks/4/path = NodePath("donac_ombro:scale")
tracks/4/interp = 1
tracks/4/loop_wrap = true
tracks/4/imported = false
tracks/4/enabled = true
tracks/4/keys = {
"times": PoolRealArray( 0, 0.2, 0.5 ),
"transitions": PoolRealArray( 1, 1, 1 ),
"update": 0,
"values": [ Vector2( 0.404969, 0.0813476 ), Vector2( 0.466741, 0.0933766 ), Vector2( 0.060339, 0.0120715 ) ]
}
tracks/5/type = "value"
tracks/5/path = NodePath("donac_ombro:modulate")
tracks/5/interp = 1
tracks/5/loop_wrap = true
tracks/5/imported = false
tracks/5/enabled = true
tracks/5/keys = {
"times": PoolRealArray( 0.2, 0.5 ),
"transitions": PoolRealArray( 1, 1 ),
"update": 0,
"values": [ Color( 1, 1, 1, 1 ), Color( 1, 1, 1, 0 ) ]
}

[sub_resource type="CircleShape2D" id=3]

radius = 36.8096

[node name="donaco" type="StaticBody2D" groups=[
"donacoj",
]]
z_index = 3
collision_layer = 2
collision_mask = 2
script = ExtResource( 1 )

[node name="animacioj" type="AnimationPlayer" parent="."]
autoplay = "originala"
anims/originala = SubResource( 1 )
anims/preni = SubResource( 2 )
blend_times = [ "originala", "preni", 3.0 ]

[node name="CollisionShape2D" type="CollisionShape2D" parent="."]
position = Vector2( -1.50143, -69.4713 )
shape = SubResource( 3 )

[node name="donaco" type="Sprite" parent="."]
position = Vector2( -5.70026, -95.597 )
texture = ExtResource( 2 )

[node name="donac_ombro" type="Sprite" parent="."]
position = Vector2( -0.247253, 0.193481 )
scale = Vector2( 0.261833, 0.0549471 )
texture = ExtResource( 3 )

